golcell_tb.vcd
$date
  Mon May  1 16:23:46 2017
$end
$version
  GHDL v0
$end
$timescale
  1 fs
$end
$var reg 1 ! r_clk $end
$var reg 1 " r_set $end
$var reg 1 # r_life $end
$var reg 1 $ r_left $end
$var reg 1 % r_right $end
$var integer 32 & r_ntop $end
$var integer 32 ' r_nbot $end
$var integer 32 ( w_hsum $end
$var reg 1 ) w_life $end
$scope module uut $end
$var reg 1 * i_clk $end
$var reg 1 + i_set $end
$var reg 1 , i_life $end
$var reg 1 - i_left $end
$var reg 1 . i_right $end
$var integer 32 / i_ntop $end
$var integer 32 0 i_nbot $end
$var integer 32 1 o_hsum $end
$var reg 1 2 o_life $end
$var integer 32 3 w_nneighb $end
$var reg 1 4 w_i_set $end
$var reg 1 5 w_i_life $end
$upscope $end
$enddefinitions $end
#0
0!
0"
0#
0$
0%
b0 &
b0 '
b0 (
U)
0*
0+
0,
0-
0.
b0 /
b0 0
b0 1
U2
b0 3
04
05
#1000000
1"
1+
14
#2000000
1!
0"
0)
1*
0+
02
04
#3000000
0!
0*
#4000000
1$
b1 (
1-
b1 1
b1 3
#5000000
0$
1%
0-
1.
#6000000
1$
b10 (
1-
b10 1
b10 3
#7000000
1"
1#
0$
0%
b0 (
1+
1,
0-
0.
b0 1
b0 3
14
15
#8000000
1!
0"
0#
b1 (
1)
1*
0+
0,
b1 1
12
04
05
#9000000
0!
0*
#10000000
1$
b10 (
1-
b10 1
b1 3
#11000000
0$
1%
0-
1.
#12000000
1$
b11 (
1-
b11 1
b10 3
#13000000
b1 &
b1 /
b11 3
#14000000
1!
0$
0%
b0 &
b1 (
1*
0-
0.
b0 /
b1 1
b0 3
#15000000
0!
b1 &
b1 '
0*
b1 /
b1 0
b10 3
#16000000
1!
b0 &
b0 '
1*
b0 /
b0 0
b0 3
#17000000
0!
1$
1%
b1 &
b1 '
b11 (
0*
1-
1.
b1 /
b1 0
b11 1
b100 3
#18000000
1!
0$
0%
b0 &
b0 '
b0 (
0)
1*
0-
0.
b0 /
b0 0
b0 1
02
b0 3
#19000000
0!
0*
#20000000
1!
1$
1%
b1 &
b10 (
1*
1-
1.
b1 /
b10 1
b11 3
#21000000
0!
0*
#22000000
1!
0$
0%
b0 &
b1 (
1)
1*
0-
0.
b0 /
b1 1
12
b0 3
