golcell2_tb.vcd
$date
  Mon May  1 12:12:59 2017
$end
$version
  GHDL v0
$end
$timescale
  1 fs
$end
$var reg 1 ! r_clk $end
$var reg 1 " r_set $end
$var reg 1 # r_life $end
$var reg 1 $ r_left $end
$var reg 1 % r_right $end
$var integer 32 & r_ntop $end
$var integer 32 ' r_nbot $end
$var integer 32 ( w_hsum $end
$var reg 1 ) w_life $end
$scope module uut $end
$var reg 1 * i_clk $end
$var reg 1 + i_set $end
$var reg 1 , i_life $end
$var reg 1 - i_left $end
$var reg 1 . i_right $end
$var integer 32 / i_ntop $end
$var integer 32 0 i_nbot $end
$var integer 32 1 o_hsum $end
$var reg 1 2 o_life $end
$var integer 32 3 nneighb $end
$upscope $end
$enddefinitions $end
#0
0!
0"
0#
0$
0%
b0 &
b0 '
b0 (
U)
0*
0+
0,
0-
0.
b0 /
b0 0
b0 1
U2
b0 3
#1000000
1"
0)
1+
02
#2000000
0"
0+
#3000000
1$
b1 (
1-
b1 1
b1 3
#4000000
0$
1%
0-
1.
#5000000
1$
b10 (
1-
b10 1
b10 3
#6000000
1"
1#
0$
0%
b1 (
1)
1+
1,
0-
0.
b1 1
12
b0 3
#7000000
0"
0#
0+
0,
#8000000
1$
b10 (
1-
b10 1
b1 3
#9000000
0$
1%
0-
1.
#10000000
1$
b11 (
1-
b11 1
b10 3
#11000000
1"
1#
0$
0%
b1 (
1+
1,
0-
0.
b1 1
b0 3
#12000000
0"
1$
1%
b1 &
b11 (
0+
1-
1.
b1 /
b11 1
b11 3
#13000000
1!
0#
1*
0,
#14000000
0!
0$
0%
b1 '
b1 (
0*
0-
0.
b1 0
b1 1
b10 3
#15000000
1!
1*
#16000000
0!
1$
1%
b11 (
0*
1-
1.
b11 1
b100 3
#17000000
1!
b10 (
0)
1*
b10 1
02
#18000000
0!
0$
0%
b0 &
b0 '
b0 (
0*
0-
0.
b0 /
b0 0
b0 1
b0 3
#19000000
1!
1$
1%
b1 &
b10 (
1*
1-
1.
b1 /
b10 1
b11 3
#20000000
0!
0*
#21000000
1!
0$
0%
b0 &
b1 (
1)
1*
0-
0.
b0 /
b1 1
12
b0 3
#22000000
0!
1"
b0 (
0)
0*
1+
b0 1
02
