golcell_tb.vcd
$date
  Sun Apr 30 16:36:55 2017
$end
$version
  GHDL v0
$end
$timescale
  1 fs
$end
$var reg 1 ! r_clk $end
$var reg 1 " r_ul $end
$var reg 1 # r_u $end
$var reg 1 $ r_ur $end
$var reg 1 % r_l $end
$var reg 1 & r_r $end
$var reg 1 ' r_dl $end
$var reg 1 ( r_d $end
$var reg 1 ) r_dr $end
$var reg 1 * w_life $end
$scope module uut $end
$var reg 1 + i_clk $end
$var reg 1 , i_ul $end
$var reg 1 - i_u $end
$var reg 1 . i_ur $end
$var reg 1 / i_l $end
$var reg 1 0 i_r $end
$var reg 1 1 i_dl $end
$var reg 1 2 i_d $end
$var reg 1 3 i_dr $end
$var reg 1 4 o_life $end
$var integer 32 5 nneighb $end
$upscope $end
$enddefinitions $end
#0
0!
1"
1#
1$
0%
0&
0'
0(
0)
0*
0+
1,
1-
1.
0/
00
01
02
03
04
b11 5
#1000000
1!
1*
1+
14
#2000000
0!
1%
0+
1/
b100 5
#3000000
1!
0*
1+
04
#4000000
0!
1&
0+
10
b101 5
#5000000
1!
0"
0%
0&
1+
0,
0/
00
b10 5
#6000000
0!
1%
0+
1/
b11 5
#7000000
1!
1*
1+
14
#8000000
0!
1&
0+
10
b100 5
#9000000
1!
0&
0*
1+
00
04
b11 5
#10000000
0!
1&
0+
10
b100 5
#11000000
1!
1"
0&
1+
1,
00
#12000000
0!
1&
0+
10
b101 5
#13000000
1!
0"
0&
1+
0,
00
b11 5
#14000000
0!
1&
0+
10
b100 5
