shifter_tb.vcd
$date
  Mon May  1 15:34:37 2017
$end
$version
  GHDL v0
$end
$timescale
  1 fs
$end
$var reg 1 ! r_clk $end
$var reg 1 " r_set $end
$var reg 1 # r_in $end
$var reg 8 $ r_val[7:0] $end
$var reg 8 % w_val[7:0] $end
$scope module uut $end
$var reg 1 & i_clk $end
$var reg 1 ' i_set $end
$var reg 1 ( i_in $end
$var reg 8 ) i_val[7:0] $end
$var reg 8 * o_val[7:0] $end
$scope module (1) $end
$upscope $end
$scope module (2) $end
$upscope $end
$scope module (3) $end
$upscope $end
$scope module (4) $end
$upscope $end
$scope module (5) $end
$upscope $end
$scope module (6) $end
$upscope $end
$scope module (7) $end
$upscope $end
$upscope $end
$enddefinitions $end
#0
0!
0"
0#
b00000000 $
bUUUUUUUU %
0&
0'
0(
b00000000 )
bUUUUUUUU *
#1000000
1!
bUUUUUUU0 %
1&
bUUUUUUU0 *
#2000000
0!
0&
#3000000
1!
bUUUUUU00 %
1&
bUUUUUU00 *
#4000000
0!
0&
#5000000
1!
bUUUUU000 %
1&
bUUUUU000 *
#6000000
0!
0&
#7000000
1!
bUUUU0000 %
1&
bUUUU0000 *
#8000000
0!
0&
#9000000
1!
bUUU00000 %
1&
bUUU00000 *
#10000000
0!
0&
#11000000
1!
bUU000000 %
1&
bUU000000 *
#12000000
0!
1#
0&
1(
#13000000
1!
bU0000001 %
1&
bU0000001 *
#14000000
0!
0&
#15000000
1!
b00000011 %
1&
b00000011 *
#16000000
0!
0&
#17000000
1!
b00000111 %
1&
b00000111 *
#18000000
0!
0&
#19000000
1!
b00001111 %
1&
b00001111 *
#20000000
0!
1"
0#
b10111000 $
b10111000 %
0&
1'
0(
b10111000 )
b10111000 *
#21000000
1!
1&
#22000000
0!
0"
0&
0'
#23000000
1!
b00000000 $
b01110000 %
1&
b00000000 )
b01110000 *
#24000000
0!
0&
#25000000
1!
b11100000 %
1&
b11100000 *
#26000000
0!
0&
#27000000
1!
b11000000 %
1&
b11000000 *
